info face="Distant Galaxy" size=60 bold=0 italic=0 charset="" unicode=0 stretchH=100 smooth=1 aa=1 padding=1,1,1,1 spacing=-2,-2
common lineHeight=60 base=48 scaleW=512 scaleH=512 pages=1 packed=0
page id=0 file="galaxy.png"
chars count=156
char id=10      x=0    y=0    width=0    height=0    xoffset=0    yoffset=0    xadvance=0    page=0    chnl=0 
char id=32      x=0    y=0    width=0    height=0    xoffset=-1   yoffset=47   xadvance=24   page=0    chnl=0 
char id=33      x=485  y=319  width=14   height=41   xoffset=-1   yoffset=8    xadvance=15   page=0    chnl=0 
char id=34      x=164  y=401  width=27   height=20   xoffset=-1   yoffset=8    xadvance=28   page=0    chnl=0 
char id=35      x=48   y=58   width=34   height=47   xoffset=0    yoffset=3    xadvance=34   page=0    chnl=0 
char id=36      x=103  y=0    width=30   height=55   xoffset=1    yoffset=0    xadvance=33   page=0    chnl=0 
char id=37      x=0    y=58   width=48   height=47   xoffset=2    yoffset=4    xadvance=53   page=0    chnl=0 
char id=38      x=82   y=58   width=39   height=47   xoffset=2    yoffset=4    xadvance=40   page=0    chnl=0 
char id=39      x=494  y=360  width=14   height=20   xoffset=-1   yoffset=8    xadvance=15   page=0    chnl=0 
char id=40      x=183  y=0    width=18   height=53   xoffset=2    yoffset=2    xadvance=24   page=0    chnl=0 
char id=41      x=201  y=0    width=18   height=53   xoffset=1    yoffset=2    xadvance=24   page=0    chnl=0 
char id=42      x=256  y=360  width=41   height=41   xoffset=-1   yoffset=8    xadvance=42   page=0    chnl=0 
char id=43      x=62   y=401  width=30   height=30   xoffset=2    yoffset=12   xadvance=34   page=0    chnl=0 
char id=44      x=494  y=360  width=14   height=20   xoffset=-1   yoffset=35   xadvance=15   page=0    chnl=0 
char id=45      x=313  y=401  width=20   height=8    xoffset=2    yoffset=24   xadvance=27   page=0    chnl=0 
char id=46      x=239  y=401  width=14   height=14   xoffset=-1   yoffset=35   xadvance=15   page=0    chnl=0 
char id=47      x=469  y=0    width=19   height=47   xoffset=-1   yoffset=3    xadvance=17   page=0    chnl=0 
char id=48      x=175  y=360  width=35   height=41   xoffset=-1   yoffset=8    xadvance=36   page=0    chnl=0 
char id=49      x=487  y=278  width=17   height=41   xoffset=-1   yoffset=8    xadvance=18   page=0    chnl=0 
char id=50      x=380  y=319  width=35   height=41   xoffset=-1   yoffset=8    xadvance=36   page=0    chnl=0 
char id=51      x=415  y=319  width=35   height=41   xoffset=-1   yoffset=8    xadvance=36   page=0    chnl=0 
char id=52      x=450  y=319  width=35   height=41   xoffset=-1   yoffset=8    xadvance=36   page=0    chnl=0 
char id=53      x=0    y=360  width=35   height=41   xoffset=-1   yoffset=8    xadvance=36   page=0    chnl=0 
char id=54      x=35   y=360  width=35   height=41   xoffset=-1   yoffset=8    xadvance=36   page=0    chnl=0 
char id=55      x=70   y=360  width=35   height=41   xoffset=-1   yoffset=8    xadvance=36   page=0    chnl=0 
char id=56      x=105  y=360  width=35   height=41   xoffset=-1   yoffset=8    xadvance=36   page=0    chnl=0 
char id=57      x=140  y=360  width=35   height=41   xoffset=-1   yoffset=8    xadvance=36   page=0    chnl=0 
char id=58      x=480  y=360  width=14   height=35   xoffset=-1   yoffset=14   xadvance=15   page=0    chnl=0 
char id=59      x=242  y=360  width=14   height=41   xoffset=-1   yoffset=14   xadvance=15   page=0    chnl=0 
char id=60      x=0    y=401  width=31   height=32   xoffset=2    yoffset=11   xadvance=35   page=0    chnl=0 
char id=61      x=191  y=401  width=30   height=20   xoffset=2    yoffset=17   xadvance=34   page=0    chnl=0 
char id=62      x=31   y=401  width=31   height=32   xoffset=2    yoffset=11   xadvance=35   page=0    chnl=0 
char id=63      x=210  y=360  width=32   height=41   xoffset=-1   yoffset=8    xadvance=33   page=0    chnl=0 
char id=64      x=38   y=105  width=41   height=45   xoffset=-1   yoffset=4    xadvance=42   page=0    chnl=0 
char id=65      x=0    y=196  width=49   height=41   xoffset=-5   yoffset=8    xadvance=45   page=0    chnl=0 
char id=66      x=49   y=196  width=42   height=41   xoffset=-5   yoffset=8    xadvance=39   page=0    chnl=0 
char id=67      x=91   y=196  width=35   height=41   xoffset=-1   yoffset=8    xadvance=36   page=0    chnl=0 
char id=68      x=126  y=196  width=42   height=41   xoffset=-5   yoffset=8    xadvance=39   page=0    chnl=0 
char id=69      x=168  y=196  width=42   height=41   xoffset=-5   yoffset=8    xadvance=39   page=0    chnl=0 
char id=70      x=210  y=196  width=42   height=41   xoffset=-5   yoffset=8    xadvance=39   page=0    chnl=0 
char id=71      x=252  y=196  width=38   height=41   xoffset=-1   yoffset=8    xadvance=39   page=0    chnl=0 
char id=72      x=290  y=196  width=42   height=41   xoffset=-5   yoffset=8    xadvance=39   page=0    chnl=0 
char id=73      x=488  y=151  width=18   height=41   xoffset=-5   yoffset=8    xadvance=15   page=0    chnl=0 
char id=74      x=133  y=0    width=27   height=53   xoffset=-5   yoffset=8    xadvance=24   page=0    chnl=0 
char id=75      x=332  y=196  width=43   height=41   xoffset=-5   yoffset=8    xadvance=40   page=0    chnl=0 
char id=76      x=375  y=196  width=42   height=41   xoffset=-5   yoffset=8    xadvance=39   page=0    chnl=0 
char id=77      x=417  y=196  width=48   height=41   xoffset=-5   yoffset=8    xadvance=45   page=0    chnl=0 
char id=78      x=465  y=196  width=42   height=41   xoffset=-5   yoffset=8    xadvance=39   page=0    chnl=0 
char id=79      x=0    y=237  width=41   height=41   xoffset=-1   yoffset=8    xadvance=42   page=0    chnl=0 
char id=80      x=41   y=237  width=42   height=41   xoffset=-5   yoffset=8    xadvance=39   page=0    chnl=0 
char id=81      x=83   y=237  width=44   height=41   xoffset=-1   yoffset=8    xadvance=45   page=0    chnl=0 
char id=82      x=127  y=237  width=43   height=41   xoffset=-5   yoffset=8    xadvance=40   page=0    chnl=0 
char id=83      x=170  y=237  width=42   height=41   xoffset=-5   yoffset=8    xadvance=39   page=0    chnl=0 
char id=84      x=212  y=237  width=42   height=41   xoffset=-5   yoffset=8    xadvance=39   page=0    chnl=0 
char id=85      x=254  y=237  width=42   height=41   xoffset=-5   yoffset=8    xadvance=39   page=0    chnl=0 
char id=86      x=296  y=237  width=49   height=41   xoffset=-5   yoffset=8    xadvance=45   page=0    chnl=0 
char id=87      x=345  y=237  width=67   height=41   xoffset=-5   yoffset=8    xadvance=63   page=0    chnl=0 
char id=88      x=412  y=237  width=46   height=41   xoffset=-5   yoffset=8    xadvance=42   page=0    chnl=0 
char id=89      x=458  y=237  width=46   height=41   xoffset=-6   yoffset=8    xadvance=42   page=0    chnl=0 
char id=90      x=0    y=278  width=42   height=41   xoffset=-5   yoffset=8    xadvance=39   page=0    chnl=0 
char id=91      x=75   y=0    width=14   height=57   xoffset=3    yoffset=4    xadvance=16   page=0    chnl=0 
char id=92      x=488  y=0    width=19   height=47   xoffset=-1   yoffset=3    xadvance=17   page=0    chnl=0 
char id=93      x=89   y=0    width=14   height=57   xoffset=0    yoffset=4    xadvance=17   page=0    chnl=0 
char id=94      x=92   y=401  width=28   height=26   xoffset=0    yoffset=3    xadvance=28   page=0    chnl=0 
char id=95      x=333  y=401  width=35   height=7    xoffset=0    yoffset=54   xadvance=35   page=0    chnl=0 
char id=96      x=285  y=401  width=14   height=10   xoffset=1    yoffset=4    xadvance=20   page=0    chnl=0 
char id=97      x=42   y=278  width=44   height=41   xoffset=-1   yoffset=8    xadvance=45   page=0    chnl=0 
char id=98      x=86   y=278  width=38   height=41   xoffset=-1   yoffset=8    xadvance=39   page=0    chnl=0 
char id=99      x=91   y=196  width=35   height=41   xoffset=-1   yoffset=8    xadvance=36   page=0    chnl=0 
char id=100     x=124  y=278  width=38   height=41   xoffset=-1   yoffset=8    xadvance=39   page=0    chnl=0 
char id=101     x=162  y=278  width=38   height=41   xoffset=-1   yoffset=8    xadvance=39   page=0    chnl=0 
char id=102     x=200  y=278  width=38   height=41   xoffset=-1   yoffset=8    xadvance=39   page=0    chnl=0 
char id=103     x=252  y=196  width=38   height=41   xoffset=-1   yoffset=8    xadvance=39   page=0    chnl=0 
char id=104     x=238  y=278  width=38   height=41   xoffset=-1   yoffset=8    xadvance=39   page=0    chnl=0 
char id=105     x=276  y=278  width=14   height=41   xoffset=-1   yoffset=8    xadvance=15   page=0    chnl=0 
char id=106     x=160  y=0    width=23   height=53   xoffset=-1   yoffset=8    xadvance=24   page=0    chnl=0 
char id=107     x=290  y=278  width=39   height=41   xoffset=-2   yoffset=8    xadvance=33   page=0    chnl=0 
char id=108     x=329  y=278  width=38   height=41   xoffset=-1   yoffset=8    xadvance=39   page=0    chnl=0 
char id=109     x=367  y=278  width=44   height=41   xoffset=-1   yoffset=8    xadvance=45   page=0    chnl=0 
char id=110     x=411  y=278  width=38   height=41   xoffset=-1   yoffset=8    xadvance=39   page=0    chnl=0 
char id=111     x=0    y=237  width=41   height=41   xoffset=-1   yoffset=8    xadvance=42   page=0    chnl=0 
char id=112     x=449  y=278  width=38   height=41   xoffset=-1   yoffset=8    xadvance=39   page=0    chnl=0 
char id=113     x=83   y=237  width=44   height=41   xoffset=-1   yoffset=8    xadvance=45   page=0    chnl=0 
char id=114     x=0    y=319  width=39   height=41   xoffset=-1   yoffset=8    xadvance=40   page=0    chnl=0 
char id=115     x=39   y=319  width=38   height=41   xoffset=-1   yoffset=8    xadvance=39   page=0    chnl=0 
char id=116     x=77   y=319  width=38   height=41   xoffset=-1   yoffset=8    xadvance=39   page=0    chnl=0 
char id=117     x=115  y=319  width=38   height=41   xoffset=-1   yoffset=8    xadvance=39   page=0    chnl=0 
char id=118     x=153  y=319  width=44   height=41   xoffset=-1   yoffset=8    xadvance=45   page=0    chnl=0 
char id=119     x=197  y=319  width=62   height=41   xoffset=-1   yoffset=8    xadvance=63   page=0    chnl=0 
char id=120     x=259  y=319  width=41   height=41   xoffset=-1   yoffset=8    xadvance=42   page=0    chnl=0 
char id=121     x=300  y=319  width=42   height=41   xoffset=-2   yoffset=8    xadvance=42   page=0    chnl=0 
char id=122     x=342  y=319  width=38   height=41   xoffset=-1   yoffset=8    xadvance=39   page=0    chnl=0 
char id=123     x=0    y=0    width=19   height=58   xoffset=1    yoffset=4    xadvance=20   page=0    chnl=0 
char id=124     x=38   y=0    width=7    height=58   xoffset=5    yoffset=4    xadvance=16   page=0    chnl=0 
char id=125     x=19   y=0    width=19   height=58   xoffset=0    yoffset=4    xadvance=20   page=0    chnl=0 
char id=126     x=253  y=401  width=32   height=14   xoffset=2    yoffset=20   xadvance=35   page=0    chnl=0 
char id=145     x=271  y=58   width=36   height=46   xoffset=-1   yoffset=3    xadvance=39   page=0    chnl=0 
char id=161     x=297  y=360  width=14   height=41   xoffset=-1   yoffset=8    xadvance=15   page=0    chnl=0 
char id=167     x=45   y=0    width=30   height=58   xoffset=1    yoffset=4    xadvance=33   page=0    chnl=0 
char id=169     x=120  y=401  width=22   height=23   xoffset=-1   yoffset=27   xadvance=42   page=0    chnl=0 
char id=174     x=142  y=401  width=22   height=23   xoffset=-1   yoffset=27   xadvance=23   page=0    chnl=0 
char id=176     x=221  y=401  width=18   height=18   xoffset=3    yoffset=4    xadvance=24   page=0    chnl=0 
char id=180     x=299  y=401  width=14   height=10   xoffset=5    yoffset=4    xadvance=20   page=0    chnl=0 
char id=182     x=311  y=360  width=32   height=41   xoffset=-1   yoffset=8    xadvance=33   page=0    chnl=0 
char id=191     x=343  y=360  width=32   height=41   xoffset=-1   yoffset=8    xadvance=33   page=0    chnl=0 
char id=192     x=79   y=105  width=45   height=45   xoffset=2    yoffset=4    xadvance=52   page=0    chnl=0 
char id=193     x=124  y=105  width=45   height=45   xoffset=2    yoffset=4    xadvance=52   page=0    chnl=0 
char id=194     x=169  y=105  width=45   height=45   xoffset=2    yoffset=4    xadvance=52   page=0    chnl=0 
char id=195     x=307  y=58   width=46   height=46   xoffset=1    yoffset=3    xadvance=52   page=0    chnl=0 
char id=196     x=219  y=0    width=49   height=53   xoffset=-5   yoffset=2    xadvance=45   page=0    chnl=0 
char id=197     x=353  y=58   width=46   height=46   xoffset=1    yoffset=3    xadvance=51   page=0    chnl=0 
char id=198     x=375  y=360  width=64   height=41   xoffset=-2   yoffset=8    xadvance=64   page=0    chnl=0 
char id=199     x=268  y=0    width=35   height=53   xoffset=-1   yoffset=8    xadvance=36   page=0    chnl=0 
char id=200     x=214  y=105  width=39   height=45   xoffset=1    yoffset=4    xadvance=45   page=0    chnl=0 
char id=201     x=253  y=105  width=39   height=45   xoffset=1    yoffset=4    xadvance=45   page=0    chnl=0 
char id=202     x=292  y=105  width=39   height=45   xoffset=1    yoffset=4    xadvance=45   page=0    chnl=0 
char id=203     x=121  y=58   width=39   height=47   xoffset=1    yoffset=2    xadvance=45   page=0    chnl=0 
char id=204     x=480  y=58   width=17   height=45   xoffset=2    yoffset=4    xadvance=22   page=0    chnl=0 
char id=205     x=331  y=105  width=17   height=45   xoffset=2    yoffset=4    xadvance=22   page=0    chnl=0 
char id=206     x=348  y=105  width=17   height=45   xoffset=2    yoffset=4    xadvance=22   page=0    chnl=0 
char id=207     x=160  y=58   width=22   height=47   xoffset=2    yoffset=2    xadvance=25   page=0    chnl=0 
char id=209     x=399  y=58   width=39   height=46   xoffset=1    yoffset=3    xadvance=45   page=0    chnl=0 
char id=210     x=365  y=105  width=38   height=45   xoffset=-1   yoffset=4    xadvance=42   page=0    chnl=0 
char id=211     x=403  y=105  width=38   height=45   xoffset=-1   yoffset=4    xadvance=42   page=0    chnl=0 
char id=212     x=441  y=105  width=38   height=45   xoffset=-1   yoffset=4    xadvance=42   page=0    chnl=0 
char id=214     x=303  y=0    width=41   height=53   xoffset=-1   yoffset=2    xadvance=42   page=0    chnl=0 
char id=217     x=0    y=151  width=39   height=45   xoffset=1    yoffset=4    xadvance=45   page=0    chnl=0 
char id=218     x=39   y=151  width=39   height=45   xoffset=1    yoffset=4    xadvance=45   page=0    chnl=0 
char id=219     x=78   y=151  width=39   height=45   xoffset=1    yoffset=4    xadvance=45   page=0    chnl=0 
char id=220     x=344  y=0    width=42   height=53   xoffset=-5   yoffset=2    xadvance=39   page=0    chnl=0 
char id=223     x=182  y=58   width=32   height=47   xoffset=3    yoffset=3    xadvance=36   page=0    chnl=0 
char id=224     x=117  y=151  width=41   height=45   xoffset=-1   yoffset=4    xadvance=45   page=0    chnl=0 
char id=225     x=158  y=151  width=41   height=45   xoffset=-1   yoffset=4    xadvance=45   page=0    chnl=0 
char id=226     x=199  y=151  width=41   height=45   xoffset=-1   yoffset=4    xadvance=45   page=0    chnl=0 
char id=227     x=438  y=58   width=42   height=46   xoffset=-1   yoffset=3    xadvance=46   page=0    chnl=0 
char id=228     x=386  y=0    width=45   height=53   xoffset=-1   yoffset=2    xadvance=45   page=0    chnl=0 
char id=229     x=439  y=360  width=41   height=38   xoffset=-1   yoffset=11   xadvance=45   page=0    chnl=0 
char id=230     x=375  y=360  width=64   height=41   xoffset=-2   yoffset=8    xadvance=64   page=0    chnl=0 
char id=231     x=268  y=0    width=35   height=53   xoffset=-1   yoffset=8    xadvance=36   page=0    chnl=0 
char id=232     x=240  y=151  width=35   height=45   xoffset=-1   yoffset=4    xadvance=39   page=0    chnl=0 
char id=233     x=275  y=151  width=35   height=45   xoffset=-1   yoffset=4    xadvance=39   page=0    chnl=0 
char id=234     x=310  y=151  width=35   height=45   xoffset=-1   yoffset=4    xadvance=39   page=0    chnl=0 
char id=235     x=214  y=58   width=35   height=47   xoffset=-1   yoffset=2    xadvance=39   page=0    chnl=0 
char id=236     x=479  y=105  width=13   height=45   xoffset=-1   yoffset=4    xadvance=15   page=0    chnl=0 
char id=237     x=492  y=105  width=13   height=45   xoffset=-1   yoffset=4    xadvance=15   page=0    chnl=0 
char id=238     x=497  y=58   width=13   height=45   xoffset=-1   yoffset=4    xadvance=15   page=0    chnl=0 
char id=239     x=249  y=58   width=22   height=47   xoffset=-1   yoffset=2    xadvance=22   page=0    chnl=0 
char id=242     x=345  y=151  width=38   height=45   xoffset=-1   yoffset=4    xadvance=42   page=0    chnl=0 
char id=243     x=403  y=105  width=38   height=45   xoffset=-1   yoffset=4    xadvance=42   page=0    chnl=0 
char id=244     x=441  y=105  width=38   height=45   xoffset=-1   yoffset=4    xadvance=42   page=0    chnl=0 
char id=245     x=0    y=105  width=38   height=46   xoffset=-1   yoffset=3    xadvance=42   page=0    chnl=0 
char id=246     x=303  y=0    width=41   height=53   xoffset=-1   yoffset=2    xadvance=42   page=0    chnl=0 
char id=249     x=383  y=151  width=35   height=45   xoffset=-1   yoffset=4    xadvance=39   page=0    chnl=0 
char id=250     x=418  y=151  width=35   height=45   xoffset=-1   yoffset=4    xadvance=39   page=0    chnl=0 
char id=251     x=453  y=151  width=35   height=45   xoffset=-1   yoffset=4    xadvance=39   page=0    chnl=0 
char id=252     x=431  y=0    width=38   height=53   xoffset=-1   yoffset=2    xadvance=39   page=0    chnl=0 
kernings count=314
kerning first=83 second=65 amount=-5
kerning first=120 second=81 amount=-6
kerning first=88 second=79 amount=-6
kerning first=70 second=74 amount=-7
kerning first=68 second=119 amount=-3
kerning first=97 second=118 amount=-11
kerning first=108 second=118 amount=-7
kerning first=118 second=106 amount=-7
kerning first=89 second=97 amount=-11
kerning first=120 second=71 amount=-6
kerning first=113 second=86 amount=-6
kerning first=79 second=230 amount=-7
kerning first=111 second=106 amount=-7
kerning first=102 second=97 amount=-7
kerning first=100 second=65 amount=-3
kerning first=89 second=74 amount=-7
kerning first=87 second=106 amount=-7
kerning first=98 second=120 amount=-4
kerning first=111 second=121 amount=-7
kerning first=80 second=198 amount=-12
kerning first=100 second=89 amount=-7
kerning first=87 second=67 amount=-3
kerning first=80 second=121 amount=-4
kerning first=112 second=65 amount=-6
kerning first=118 second=67 amount=-3
kerning first=65 second=67 amount=-3
kerning first=88 second=81 amount=-6
kerning first=65 second=71 amount=-3
kerning first=79 second=74 amount=-7
kerning first=97 second=86 amount=-11
kerning first=86 second=79 amount=-3
kerning first=89 second=81 amount=-7
kerning first=65 second=81 amount=-3
kerning first=97 second=121 amount=-11
kerning first=89 second=83 amount=-7
kerning first=97 second=84 amount=-7
kerning first=65 second=116 amount=-7
kerning first=76 second=86 amount=-7
kerning first=81 second=87 amount=-6
kerning first=79 second=88 amount=-6
kerning first=108 second=89 amount=-12
kerning first=80 second=65 amount=-6
kerning first=121 second=97 amount=-11
kerning first=87 second=99 amount=-3
kerning first=118 second=113 amount=-3
kerning first=84 second=106 amount=-7
kerning first=120 second=103 amount=-6
kerning first=112 second=121 amount=-4
kerning first=86 second=71 amount=-3
kerning first=66 second=106 amount=-7
kerning first=87 second=230 amount=-11
kerning first=116 second=198 amount=-10
kerning first=89 second=111 amount=-7
kerning first=86 second=113 amount=-3
kerning first=87 second=74 amount=-7
kerning first=97 second=116 amount=-7
kerning first=76 second=118 amount=-7
kerning first=113 second=119 amount=-6
kerning first=111 second=120 amount=-6
kerning first=108 second=121 amount=-12
kerning first=121 second=67 amount=-7
kerning first=119 second=111 amount=-3
kerning first=65 second=119 amount=-11
kerning first=79 second=198 amount=-7
kerning first=112 second=106 amount=-7
kerning first=119 second=65 amount=-11
kerning first=115 second=230 amount=-7
kerning first=100 second=120 amount=-6
kerning first=88 second=111 amount=-6
kerning first=100 second=118 amount=-3
kerning first=121 second=106 amount=-7
kerning first=118 second=103 amount=-3
kerning first=86 second=65 amount=-11
kerning first=65 second=99 amount=-3
kerning first=86 second=106 amount=-7
kerning first=115 second=106 amount=-7
kerning first=112 second=74 amount=-7
kerning first=119 second=79 amount=-3
kerning first=79 second=119 amount=-3
kerning first=82 second=89 amount=-5
kerning first=89 second=65 amount=-11
kerning first=118 second=74 amount=-7
kerning first=86 second=97 amount=-11
kerning first=114 second=121 amount=-5
kerning first=118 second=230 amount=-11
kerning first=87 second=103 amount=-3
kerning first=66 second=198 amount=-4
kerning first=119 second=99 amount=-3
kerning first=116 second=65 amount=-7
kerning first=87 second=81 amount=-3
kerning first=121 second=79 amount=-7
kerning first=66 second=88 amount=-4
kerning first=85 second=106 amount=-7
kerning first=108 second=119 amount=-7
kerning first=89 second=113 amount=-7
kerning first=80 second=88 amount=-4
kerning first=89 second=198 amount=-12
kerning first=79 second=89 amount=-7
kerning first=120 second=111 amount=-6
kerning first=68 second=118 amount=-3
kerning first=97 second=71 amount=-3
kerning first=113 second=89 amount=-10
kerning first=68 second=87 amount=-3
kerning first=97 second=119 amount=-11
kerning first=86 second=103 amount=-3
kerning first=86 second=115 amount=-5
kerning first=65 second=79 amount=-3
kerning first=108 second=86 amount=-7
kerning first=116 second=230 amount=-10
kerning first=76 second=89 amount=-12
kerning first=112 second=198 amount=-12
kerning first=118 second=97 amount=-11
kerning first=79 second=87 amount=-3
kerning first=85 second=230 amount=-6
kerning first=86 second=74 amount=-7
kerning first=65 second=103 amount=-3
kerning first=116 second=106 amount=-7
kerning first=118 second=79 amount=-3
kerning first=65 second=89 amount=-11
kerning first=118 second=83 amount=-5
kerning first=119 second=71 amount=-3
kerning first=100 second=88 amount=-6
kerning first=102 second=230 amount=-14
kerning first=100 second=74 amount=-7
kerning first=120 second=113 amount=-6
kerning first=120 second=99 amount=-6
kerning first=112 second=97 amount=-6
kerning first=66 second=121 amount=-4
kerning first=111 second=118 amount=-3
kerning first=68 second=106 amount=-7
kerning first=87 second=83 amount=-5
kerning first=111 second=88 amount=-6
kerning first=66 second=230 amount=-4
kerning first=88 second=67 amount=-6
kerning first=65 second=87 amount=-11
kerning first=111 second=65 amount=-3
kerning first=76 second=87 amount=-7
kerning first=70 second=106 amount=-7
kerning first=121 second=111 amount=-7
kerning first=87 second=97 amount=-11
kerning first=85 second=198 amount=-6
kerning first=119 second=67 amount=-3
kerning first=100 second=119 amount=-3
kerning first=98 second=74 amount=-7
kerning first=86 second=198 amount=-11
kerning first=121 second=99 amount=-7
kerning first=84 second=97 amount=-7
kerning first=112 second=120 amount=-4
kerning first=89 second=103 amount=-7
kerning first=88 second=71 amount=-6
kerning first=121 second=81 amount=-7
kerning first=97 second=67 amount=-3
kerning first=97 second=113 amount=-3
kerning first=83 second=84 amount=-7
kerning first=83 second=198 amount=-7
kerning first=68 second=230 amount=-7
kerning first=117 second=198 amount=-6
kerning first=111 second=86 amount=-3
kerning first=68 second=89 amount=-7
kerning first=97 second=81 amount=-3
kerning first=100 second=86 amount=-3
kerning first=86 second=99 amount=-3
kerning first=115 second=198 amount=-7
kerning first=81 second=89 amount=-10
kerning first=97 second=79 amount=-3
kerning first=100 second=106 amount=-7
kerning first=65 second=84 amount=-7
kerning first=118 second=111 amount=-3
kerning first=108 second=87 amount=-7
kerning first=87 second=71 amount=-3
kerning first=81 second=118 amount=-6
kerning first=65 second=86 amount=-11
kerning first=86 second=83 amount=-5
kerning first=118 second=65 amount=-11
kerning first=87 second=111 amount=-3
kerning first=68 second=88 amount=-6
kerning first=121 second=230 amount=-12
kerning first=66 second=74 amount=-7
kerning first=108 second=84 amount=-10
kerning first=87 second=198 amount=-11
kerning first=116 second=97 amount=-7
kerning first=68 second=65 amount=-3
kerning first=88 second=113 amount=-6
kerning first=83 second=230 amount=-7
kerning first=97 second=87 amount=-11
kerning first=117 second=74 amount=-7
kerning first=79 second=106 amount=-7
kerning first=119 second=113 amount=-3
kerning first=79 second=65 amount=-3
kerning first=100 second=230 amount=-7
kerning first=118 second=198 amount=-11
kerning first=119 second=74 amount=-7
kerning first=84 second=74 amount=-7
kerning first=88 second=103 amount=-6
kerning first=119 second=115 amount=-5
kerning first=121 second=65 amount=-11
kerning first=98 second=89 amount=-4
kerning first=76 second=119 amount=-7
kerning first=117 second=230 amount=-6
kerning first=89 second=67 amount=-7
kerning first=111 second=119 amount=-3
kerning first=111 second=230 amount=-7
kerning first=98 second=198 amount=-4
kerning first=119 second=81 amount=-3
kerning first=79 second=97 amount=-3
kerning first=87 second=79 amount=-3
kerning first=65 second=118 amount=-11
kerning first=80 second=230 amount=-12
kerning first=119 second=106 amount=-7
kerning first=81 second=86 amount=-6
kerning first=80 second=74 amount=-7
kerning first=76 second=121 amount=-12
kerning first=68 second=121 amount=-7
kerning first=115 second=74 amount=-7
kerning first=66 second=120 amount=-4
kerning first=102 second=65 amount=-7
kerning first=70 second=198 amount=-14
kerning first=86 second=67 amount=-3
kerning first=89 second=71 amount=-7
kerning first=80 second=106 amount=-7
kerning first=79 second=121 amount=-7
kerning first=83 second=74 amount=-7
kerning first=79 second=118 amount=-3
kerning first=82 second=121 amount=-5
kerning first=68 second=120 amount=-6
kerning first=115 second=84 amount=-7
kerning first=79 second=120 amount=-6
kerning first=113 second=121 amount=-10
kerning first=121 second=71 amount=-7
kerning first=84 second=230 amount=-10
kerning first=70 second=97 amount=-7
kerning first=68 second=97 amount=-3
kerning first=89 second=115 amount=-7
kerning first=111 second=74 amount=-7
kerning first=113 second=87 amount=-6
kerning first=119 second=230 amount=-11
kerning first=84 second=198 amount=-10
kerning first=111 second=97 amount=-3
kerning first=121 second=74 amount=-7
kerning first=114 second=89 amount=-5
kerning first=118 second=99 amount=-3
kerning first=80 second=97 amount=-6
kerning first=70 second=230 amount=-14
kerning first=113 second=118 amount=-6
kerning first=119 second=83 amount=-5
kerning first=118 second=71 amount=-3
kerning first=120 second=67 amount=-6
kerning first=118 second=115 amount=-5
kerning first=115 second=97 amount=-5
kerning first=102 second=198 amount=-14
kerning first=98 second=106 amount=-7
kerning first=83 second=97 amount=-5
kerning first=97 second=103 amount=-3
kerning first=112 second=89 amount=-4
kerning first=97 second=99 amount=-3
kerning first=98 second=230 amount=-4
kerning first=112 second=230 amount=-12
kerning first=112 second=88 amount=-4
kerning first=100 second=97 amount=-3
kerning first=98 second=88 amount=-4
kerning first=121 second=115 amount=-7
kerning first=111 second=198 amount=-7
kerning first=68 second=74 amount=-7
kerning first=80 second=120 amount=-4
kerning first=121 second=103 amount=-7
kerning first=70 second=65 amount=-7
kerning first=80 second=89 amount=-4
kerning first=102 second=106 amount=-7
kerning first=121 second=113 amount=-7
kerning first=65 second=113 amount=-3
kerning first=115 second=65 amount=-5
kerning first=79 second=86 amount=-3
kerning first=86 second=81 amount=-3
kerning first=121 second=83 amount=-7
kerning first=120 second=79 amount=-6
kerning first=108 second=116 amount=-10
kerning first=102 second=74 amount=-7
kerning first=89 second=230 amount=-12
kerning first=111 second=89 amount=-7
kerning first=89 second=99 amount=-7
kerning first=100 second=87 amount=-3
kerning first=84 second=65 amount=-7
kerning first=118 second=81 amount=-3
kerning first=89 second=79 amount=-7
kerning first=87 second=113 amount=-3
kerning first=87 second=65 amount=-11
kerning first=121 second=198 amount=-12
kerning first=66 second=89 amount=-4
kerning first=76 second=84 amount=-10
kerning first=89 second=106 amount=-7
kerning first=116 second=74 amount=-7
kerning first=81 second=119 amount=-6
kerning first=111 second=87 amount=-3
kerning first=87 second=115 amount=-5
kerning first=68 second=198 amount=-7
kerning first=119 second=198 amount=-11
kerning first=76 second=116 amount=-10
kerning first=65 second=121 amount=-11
kerning first=88 second=99 amount=-6
kerning first=98 second=121 amount=-4
kerning first=97 second=111 amount=-3
kerning first=97 second=89 amount=-11
kerning first=85 second=74 amount=-7
kerning first=65 second=111 amount=-3
kerning first=81 second=121 amount=-10
kerning first=119 second=97 amount=-11
kerning first=86 second=230 amount=-11
kerning first=68 second=86 amount=-3
kerning first=100 second=121 amount=-7
kerning first=83 second=106 amount=-7
kerning first=86 second=111 amount=-3
kerning first=119 second=103 amount=-3
kerning first=117 second=106 amount=-7
kerning first=100 second=198 amount=-7
